R for Data Science Solutions
…
If you have the name of a variable stored in an object, e.g. var <- "mpg",
how can you extract the reference variable from a tibble?

var <- "mpg"
as_tibble(mtcars)[[var]]
#>  [1] 21.0 21.0 22.8 21.4 18.7 18.1 14.3 24.4 22.8 19.2 17.8 16.4 17.3 15.2
#> [15] 10.4 10.4 14.7 32.4 30.4 33.9 21.5 15.5 15.2 13.3 19.2 27.3 26.0 30.4
#> [29] 15.8 19.7 15.0 21.4

as_tibble(mtcars)[var]
#> # A tibble: 32 x 1
#>     mpg
#>   <dbl>
#> 1  21  
#> 2  21  
#> 3  22.8
#> 4  21.4
#> 5  18.7
#> 6  18.1
#> # ... with 26 more rows
…
