R for Data Science Solutions
…
table1
#> # A tibble: 6 x 4
#>   country      year  cases population
#>   <chr>       <int>  <int>      <int>
#> 1 Afghanistan  1999    745   19987071
#> 2 Afghanistan  2000   2666   20595360
#> 3 Brazil       1999  37737  172006362
#> 4 Brazil       2000  80488  174504898
#> 5 China        1999 212258 1272915272
#> 6 China        2000 213766 1280428583

table2
#> # A tibble: 12 x 4
#>   country      year type           count
#>   <chr>       <int> <chr>          <int>
#> 1 Afghanistan  1999 cases            745
#> 2 Afghanistan  1999 population  19987071
#> 3 Afghanistan  2000 cases           2666
#> 4 Afghanistan  2000 population  20595360
#> 5 Brazil       1999 cases          37737
#> 6 Brazil       1999 population 172006362
#> # ... with 6 more rows
…
t2_pop <- table2 %>% filter(type == "population") %>% select(-type) %>% rename(population = count )
t4_pop <- table4b %>% gather(`1999`, `2000`, key = "year", value = "population")

Divide cases by population, and multiply by 10000.

t2_rate <- t2_cases %>% left_join(t2_pop, by = c("country", "year")) %>% mutate(count = (cases / population) * 10000) %>% select(-cases, -population) %>% mutate(type = "rate") %>% select(country, year, type, count)

t4_rate <- t4_cases %>% left_join(t4_pop, by = c("country", "year")) %>% mutate(count = (cases / population) * 10000) %>% select(-cases, -population) %>% mutate(type = "rate") %>% select(country, year, count)

Store back in the appropriate place.

table2_new <- left_join(table2, t2_rate)
#> Joining, by = c("country", "year", "type", "count")
table2_new
#> # A tibble: 12 x 4
#>   country      year type           count
#>   <chr>       <int> <chr>          <dbl>
#> 1 Afghanistan  1999 cases            745
#> 2 Afghanistan  1999 population  19987071
#> 3 Afghanistan  2000 cases           2666
#> 4 Afghanistan  2000 population  20595360
#> 5 Brazil       1999 cases          37737
#> 6 Brazil       1999 population 172006362
#> # ... with 6 more rows
…
