…
In `table2` each row is a (country, year, type) with variable count.  Type is the `cases` and `population`.  `count` variable is the numeric value of the combination.

```r
table2
#> # A tibble: 12 x 4
#>   country      year type           count
#>   <chr>       <int> <chr>          <int>
#> 1 Afghanistan  1999 cases            745
#> 2 Afghanistan  1999 population  19987071
#> 3 Afghanistan  2000 cases           2666
#> 4 Afghanistan  2000 population  20595360
#> 5 Brazil       1999 cases          37737
#> 6 Brazil       1999 population 172006362
#> # ... with 6 more rows
```
…
```r
t2_rate <- t2_cases %>% left_join(t2_pop, by = c("country", "year")) %>% mutate(count = (cases / population) * 10000) %>% select(-cases, -population) %>% mutate(type = "rate") %>% select(country, year, type, count)

t4_rate <- t4_cases %>% left_join(t4_pop, by = c("country", "year")) %>% mutate(count = (cases / population) * 10000) %>% select(-cases, -population) %>% mutate(type = "rate") %>% select(country, year, count)
```

Store back in the appropriate place.


```r

table2_new <- left_join(table2, t2_rate)
#> Joining, by = c("country", "year", "type", "count")
table2_new
#> # A tibble: 12 x 4
#>   country      year type           count
#>   <chr>       <int> <chr>          <dbl>
#> 1 Afghanistan  1999 cases            745
#> 2 Afghanistan  1999 population  19987071
#> 3 Afghanistan  2000 cases           2666
#> 4 Afghanistan  2000 population  20595360
#> 5 Brazil       1999 cases          37737
#> 6 Brazil       1999 population 172006362
#> # ... with 6 more rows
…
## Exercises 12.6.1

In this case study I set na.rm = TRUE just to make it easier to check that we had the correct values. Is this reasonable? Think about how missing values are represented in this dataset. Are there implicit missing values? What’s the difference between an NA and zero?


```r
who
#> # A tibble: 7,240 x 60
#>   country iso2  iso3   year new_sp_m014 new_sp_m1524 new_sp_m2534
#>   <chr>   <chr> <chr> <int>       <int>        <int>        <int>
#> 1 Afghan… AF    AFG    1980          NA           NA           NA
#> 2 Afghan… AF    AFG    1981          NA           NA           NA
#> 3 Afghan… AF    AFG    1982          NA           NA           NA
#> 4 Afghan… AF    AFG    1983          NA           NA           NA
#> 5 Afghan… AF    AFG    1984          NA           NA           NA
#> 6 Afghan… AF    AFG    1985          NA           NA           NA
#> # ... with 7,234 more rows, and 53 more variables: new_sp_m3544 <int>,
#> #   new_sp_m4554 <int>, new_sp_m5564 <int>, new_sp_m65 <int>,
#> #   new_sp_f014 <int>, new_sp_f1524 <int>, new_sp_f2534 <int>,
#> #   new_sp_f3544 <int>, new_sp_f4554 <int>, new_sp_f5564 <int>,
#> #   new_sp_f65 <int>, new_sn_m014 <int>, new_sn_m1524 <int>,
#> #   new_sn_m2534 <int>, new_sn_m3544 <int>, new_sn_m4554 <int>,
#> #   new_sn_m5564 <int>, new_sn_m65 <int>, new_sn_f014 <int>,
#> #   new_sn_f1524 <int>, new_sn_f2534 <int>, new_sn_f3544 <int>,
#> #   new_sn_f4554 <int>, new_sn_f5564 <int>, new_sn_f65 <int>,
…
who1 %>% 
  count(key)
#> # A tibble: 56 x 2
#>   key              n
#>   <chr>        <int>
#> 1 new_ep_f014   1032
#> 2 new_ep_f1524  1021
#> 3 new_ep_f2534  1021
#> 4 new_ep_f3544  1021
#> 5 new_ep_f4554  1017
#> 6 new_ep_f5564  1017
#> # ... with 50 more rows
…
who2 %>% 
  count(key)
#> # A tibble: 56 x 2
#>   key              n
#>   <chr>        <int>
#> 1 new_ep_f014   7240
#> 2 new_ep_f1524  7240
#> 3 new_ep_f2534  7240
#> 4 new_ep_f3544  7240
#> 5 new_ep_f4554  7240
#> 6 new_ep_f5564  7240
#> # ... with 50 more rows
```
…
