…
Is there a relationship between the age of a plane and its delays?


```r
plane_ages<- flights %>% 
  inner_join(planes, by = c("tailnum")) %>%
  mutate(age = year.x - year.y) %>%
  group_by(age) %>%
  summarise(avg_dep_delay = mean(dep_delay, na.rm = TRUE), avg_arr_delay = mean(arr_delay,  na.rm = TRUE)) %>%
  na.omit()

plane_ages
#> # A tibble: 46 x 3
#>     age avg_dep_delay avg_arr_delay
#>   <int>         <dbl>         <dbl>
#> 1     0         10.6           4.01
#> 2     1          9.64          2.85
#> 3     2         11.8           5.70
#> 4     3         12.5           5.18
#> 5     4         11.0           4.92
#> 6     5         13.2           5.57
#> # ... with 40 more rows
…
#> 1  2013     1     1      517            515         2      830
#> 2  2013     1     1      533            529         4      850
#> 3  2013     1     1      542            540         2      923
#> 4  2013     1     1      544            545        -1     1004
#> 5  2013     1     1      554            600        -6      812
#> 6  2013     1     1      554            558        -4      740
#> # ... with 12 more variables: sched_arr_time <int>, arr_delay <dbl>,
#> #   carrier <chr>, flight <int>, tailnum <chr>, origin <chr>, dest <chr>,
#> #   air_time <dbl>, distance <dbl>, hour <dbl>, minute <dbl>,
#> #   time_hour <dttm>
# Flights with tailnum that are not in the planes table
flights %>%
  anti_join(planes, by = "tailnum") %>%
  count(carrier, sort = TRUE)
#> # A tibble: 10 x 2
#>   carrier     n
#>   <chr>   <int>
#> 1 MQ      25397
#> 2 AA      22558
#> 3 UA       1693
#> 4 9E       1044
#> 5 B6        830
#> 6 US        699
#> # ... with 4 more rows
…
Find the 48 hours (over the course of the whole year) that have the worst delays. Cross-reference it with the weather data. Can you see any patterns?


```r
flights %>%
  group_by(year, month, day) %>%
  summarise(total_24 = sum(dep_delay, na.rm = TRUE)+ sum(arr_delay, na.rm = TRUE)) %>%
  mutate(total_48 = total_24 + lag(total_24)) %>%
  arrange(desc(total_48))
#> # A tibble: 365 x 5
#> # Groups:   year, month [12]
#>    year month   day total_24 total_48
#>   <int> <int> <int>    <dbl>    <dbl>
#> 1  2013     7    23    80641   175419
#> 2  2013     3     8   135264   167530
#> 3  2013     6    25    80434   166649
#> 4  2013     8     9    72866   165287
#> 5  2013     6    28    81389   157910
#> 6  2013     7    10    97120   157396
#> # ... with 359 more rows
```
What does anti_join(flights, airports, by = c("dest" = "faa")) tell you? What does anti_join(airports, flights, by = c("faa" = "dest")) tell you?


Return all rows from flights where destination (`dest`)  is not matched in airports.  This only keeps columns from flights.

```r
# Flights with dest that are not in the airports table
anti_join(flights, airports, by = c("dest" = "faa"))
#> # A tibble: 7,602 x 19
#>    year month   day dep_time sched_dep_time dep_delay arr_time
#>   <int> <int> <int>    <int>          <int>     <dbl>    <int>
#> 1  2013     1     1      544            545        -1     1004
#> 2  2013     1     1      615            615         0     1039
#> 3  2013     1     1      628            630        -2     1137
#> 4  2013     1     1      701            700         1     1123
#> 5  2013     1     1      711            715        -4     1151
#> 6  2013     1     1      820            820         0     1254
#> # ... with 7,596 more rows, and 12 more variables: sched_arr_time <int>,
#> #   arr_delay <dbl>, carrier <chr>, flight <int>, tailnum <chr>,
#> #   origin <chr>, dest <chr>, air_time <dbl>, distance <dbl>, hour <dbl>,
#> #   minute <dbl>, time_hour <dttm>


# dest (`faa`) in flight but not in airports
airports %>% filter(faa == "BQN")
#> # A tibble: 0 x 8
#> # ... with 8 variables: faa <chr>, name <chr>, lat <dbl>, lon <dbl>,
#> #   alt <int>, tz <dbl>, dst <chr>, tzone <chr>
```


```r
# Airports that are not in the flights table for dest
anti_join(airports, flights, by = c("faa" = "dest"))
#> # A tibble: 1,357 x 8
#>   faa   name                      lat   lon   alt    tz dst   tzone       
#>   <chr> <chr>                   <dbl> <dbl> <int> <dbl> <chr> <chr>       
#> 1 04G   Lansdowne Airport        41.1 -80.6  1044    -5 A     America/New…
#> 2 06A   Moton Field Municipal …  32.5 -85.7   264    -6 A     America/Chi…
#> 3 06C   Schaumburg Regional      42.0 -88.1   801    -6 A     America/Chi…
#> 4 06N   Randall Airport          41.4 -74.4   523    -5 A     America/New…
#> 5 09J   Jekyll Island Airport    31.1 -81.4    11    -5 A     America/New…
#> 6 0A9   Elizabethton Municipal…  36.4 -82.2  1593    -5 A     America/New…
#> # ... with 1,351 more rows
…
